Dinâmica de mudança de cobertura da terra e Diagrama de Sankey | Maurício Vancine
…
Vamos também fazer o download da legenda do MapBiomas e preparar esses dados para serem usados em mapas e figuras.

# legend
legend <- tabulizer::extract_tables("https://mapbiomas-br-site.s3.amazonaws.com/C%C3%B3digos_Classes_Legenda_Cole%C3%A7%C3%A3o_7_-__PT__.docx__1_.pdf")[[1]][-(1:3), ] %>% 
    tibble::as_tibble() %>% 
    dplyr::slice(-1) |> 
    dplyr::mutate(legend_pt = stringr::str_trim(stringr::str_replace_all(V1, "[0-9.]", "")),
                  legend_en = stringr::str_trim(stringr::str_replace_all(V2, "[0-9.]", "")),
                  number = as.numeric(V3),
                  color = paste0("#", V4)) %>% 
    dplyr::select(legend_pt:color)
legend

## # A tibble: 35 × 4
##    legend_pt                      legend_en                      number color   
##    <chr>                          <chr>                           <dbl> <chr>   
##  1 Formação Florestal             Forest Formation                    3 #006400 
##  2 Formação Savânica              Savanna Formation                   4 #32CD32 
##  3 Mangue                         Mangrove                            5 #687537 
##  4 Restinga Arborizada            Wooded Sandbank Vegetation         49 #6b9932 
##  5 Formação Natural não Florestal Non Forest Natural Formation       10 #BBFCAC 
##  6 Campo Alagado e Área Pantanosa Wetland                            11 #45C2A5 
##  7 Formação Campestre             Grassland                          12 #B8AF4F 
##  8 Apicum                         Hypersaline Tidal Flat             32 #968c46 
##  9 Afloramento Rochoso            Rocky Outcrop                      29 ##FF8C00
## 10 Restinga Herbácea              Herbaceous Sandbank Vegetation     50 #66ffcc 
## # … with 25 more rows
…
